{
  "name": "Country",
  "base": "PersistedModel",
  "idInjection": false,
  "options": {
    "validateUpsert": true
  },
  "properties": {
    "id": {
      "type": "string",
      "id": true,
      "required": false,
      "postgresql": {
        "dbDefault": "uuid_generate_v4()",
        "dataType": "uuid"
      }
    },
    "name": {
      "type": "string",
      "required": true,
      "postgresql": {
        "dataType": "character varying"
      }
    },
    "created_at": {
      "type": "date",
      "defaultFn": "now"
    },
    "updated_at": {
      "type": "date"
    }
  },
  "validations": [],
  "relations": {
    "users": {
      "type": "hasMany",
      "model": "Users",
      "foreignKey": "user_id"
    }
  },
  "acls": [],
  "mixins": {
    "SetupRemoteMethods": {
      "disableAllExcept": ["findById"]
    }
  },
  "methods": {}
}
