{
  "name": "Subscribers",
  "base": "PersistedModel",
  "idInjection": false,
  "options": {
    "validateUpsert": true
  },
  "properties": {
    "id": {
      "type": "string",
      "id": true,
      "required": false,
      "postgresql": {
        "dbDefault": "uuid_generate_v4()",
        "dataType": "uuid"
      }
    }
  },
  "validations": [],
  "relations": {
    "channel": {
      "type": "belongsTo",
      "model": "Channel",
      "foreignKey": "channel_id"
    },
    "users": {
      "type": "belongsTo",
      "model": "Users",
      "foreignKey": "user_id"
    }
  },
  "acls": [],
  "mixins": {
    "SetupRemoteMethods": {
      "disableAllExcept": ["findById"]
    }
  },
  "methods": {}
}
