{
  "_meta": {
    "sources": [
      "loopback/common/models",
      "loopback/server/models",
      "../common/models",
      "./models"
    ],
   "mixins": [
      "loopback/common/mixins",
      "loopback/server/mixins",
      "../common/mixins",
      "./mixins",
      "../node_modules/loopback-setup-remote-methods-mixin"
    ]
  },
  "Users": {
    "dataSource": "postgres",
    "public": true
  },
  "AccessToken": {
    "dataSource": "postgres",
    "public": false,
    "relations": {
      "user": {
        "type": "belongsTo",
        "model": "Users",
        "foreignKey": "userId"
      }
    }
  },
  "ACL": {
    "dataSource": "postgres",
    "public": false
  },
  "Roles": {
    "dataSource": "postgres",
    "public": true
  },
  "UserRole": {
    "dataSource": "postgres",
    "public": true
  },
  "Installation": {
    "dataSource": "postgres",
    "public": true
  },
  "Uploads": {
    "dataSource": "postgres",
    "public": true
  },
  "Country": {
    "dataSource": "postgres",
    "public": true
  },
  "Channel": {
    "dataSource": "postgres",
    "public": true
  },
  "History": {
    "dataSource": "postgres",
    "public": true
  },
  "Like": {
    "dataSource": "postgres",
    "public": true
  },
  "Notification": {
    "dataSource": "postgres",
    "public": true
  },
  "Subscribers": {
    "dataSource": "postgres",
    "public": true
  },
  "View": {
    "dataSource": "postgres",
    "public": true
  },
  "WatchLater": {
    "dataSource": "postgres",
    "public": true
  }
}
